\relax 
\providecommand\hyper@newdestlabel[2]{}
\@writefile{toc}{\boolfalse {citerequest}\boolfalse {citetracker}\boolfalse {pagetracker}\boolfalse {backtracker}\relax }
\@writefile{lof}{\boolfalse {citerequest}\boolfalse {citetracker}\boolfalse {pagetracker}\boolfalse {backtracker}\relax }
\@writefile{lot}{\boolfalse {citerequest}\boolfalse {citetracker}\boolfalse {pagetracker}\boolfalse {backtracker}\relax }
\abx@aux@refcontext{none/global//global/global}
\providecommand\HyperFirstAtBeginDocument{\AtBeginDocument}
\HyperFirstAtBeginDocument{\ifx\hyper@anchor\@undefined
\global\let\oldcontentsline\contentsline
\gdef\contentsline#1#2#3#4{\oldcontentsline{#1}{#2}{#3}}
\global\let\oldnewlabel\newlabel
\gdef\newlabel#1#2{\newlabelxx{#1}#2}
\gdef\newlabelxx#1#2#3#4#5#6{\oldnewlabel{#1}{{#2}{#3}}}
\AtEndDocument{\ifx\hyper@anchor\@undefined
\let\contentsline\oldcontentsline
\let\newlabel\oldnewlabel
\fi}
\fi}
\global\let\hyper@last\relax 
\gdef\HyperFirstAtBeginDocument#1{#1}
\providecommand\HyField@AuxAddToFields[1]{}
\providecommand\HyField@AuxAddToCoFields[2]{}
\abx@aux@cite{svenson}
\abx@aux@segm{0}{0}{svenson}
\abx@aux@cite{Li13}
\abx@aux@segm{0}{0}{Li13}
\abx@aux@cite{Wang18a}
\abx@aux@segm{0}{0}{Wang18a}
\abx@aux@cite{Wang18b}
\abx@aux@segm{0}{0}{Wang18b}
\abx@aux@cite{Schilling_2021}
\abx@aux@segm{0}{0}{Schilling_2021}
\abx@aux@cite{bachelor}
\abx@aux@segm{0}{0}{bachelor}
\abx@aux@cite{myGPTpaper}
\abx@aux@segm{0}{0}{myGPTpaper}
\@writefile{toc}{\defcounter {refsection}{0}\relax }\@writefile{toc}{\contentsline {section}{\numberline {1}Introduction}{1}{section.1}\protected@file@percent }
\@writefile{lof}{\defcounter {refsection}{0}\relax }\@writefile{lof}{\contentsline {figure}{\numberline {1}{\ignorespaces Geometry of the foil bolometers, AXUV-diodes and SXR-diodes of the RADCAM diagnostic at TCV\footnotemark .\relax }}{2}{figure.caption.1}\protected@file@percent }
\providecommand*\caption@xref[2]{\@setref\relax\@undefined{#1}}
\newlabel{img_radcam_geo}{{1}{2}{Geometry of the foil bolometers, AXUV-diodes and SXR-diodes of the RADCAM diagnostic at TCV\protect \footnotemark .\relax }{figure.caption.1}{}}
\@writefile{toc}{\defcounter {refsection}{0}\relax }\@writefile{toc}{\contentsline {section}{\numberline {2}Forward Model for RADCAMs AXUV Channels}{2}{section.2}\protected@file@percent }
\@writefile{toc}{\defcounter {refsection}{0}\relax }\@writefile{toc}{\contentsline {subsection}{\numberline {2.1}Mathematical Description of Forward Model}{2}{subsection.2.1}\protected@file@percent }
\newlabel{kap3_eq_sightline_integral}{{1}{2}{Mathematical Description of Forward Model}{equation.2.1}{}}
\newlabel{eq_forward_model}{{2}{2}{Mathematical Description of Forward Model}{equation.2.2}{}}
\@writefile{toc}{\defcounter {refsection}{0}\relax }\@writefile{toc}{\contentsline {subsection}{\numberline {2.2}Computation of Transfer Matrix for AXUV Channels}{2}{subsection.2.2}\protected@file@percent }
\@writefile{toc}{\defcounter {refsection}{0}\relax }\@writefile{toc}{\contentsline {section}{\numberline {3}Recap of Gaussian Process Tomography (GPT)}{3}{section.3}\protected@file@percent }
\newlabel{eq_p_E}{{4}{3}{Recap of Gaussian Process Tomography (GPT)}{equation.3.4}{}}
\newlabel{eq_p_d_given_E}{{5}{3}{Recap of Gaussian Process Tomography (GPT)}{equation.3.5}{}}
\newlabel{eq_p_bayes}{{6}{3}{Recap of Gaussian Process Tomography (GPT)}{equation.3.6}{}}
\newlabel{eq_E_post}{{7}{3}{Recap of Gaussian Process Tomography (GPT)}{equation.3.7}{}}
\@writefile{lof}{\defcounter {refsection}{0}\relax }\@writefile{lof}{\contentsline {figure}{\numberline {2}{\ignorespaces Visualization of the geometry of a single AXUV channel. Pixels within the core region can see the whole detector, while pixels outside of it either only partially see the detector leading to a reduced contribution to the channel measurement or are completely out of sight leading to no contribution.\relax }}{4}{figure.caption.2}\protected@file@percent }
\newlabel{img_axuv_channel_geo}{{2}{4}{Visualization of the geometry of a single AXUV channel. Pixels within the core region can see the whole detector, while pixels outside of it either only partially see the detector leading to a reduced contribution to the channel measurement or are completely out of sight leading to no contribution.\relax }{figure.caption.2}{}}
\newlabel{img_axuv_channel_geo_pixel}{{3a}{4}{\relax }{figure.caption.3}{}}
\newlabel{sub@img_axuv_channel_geo_pixel}{{a}{4}{\relax }{figure.caption.3}{}}
\newlabel{img_axuv_channel10}{{3b}{4}{\relax }{figure.caption.3}{}}
\newlabel{sub@img_axuv_channel10}{{b}{4}{\relax }{figure.caption.3}{}}
\@writefile{lof}{\defcounter {refsection}{0}\relax }\@writefile{lof}{\contentsline {figure}{\numberline {3}{\ignorespaces \textbf  {a)} Depiction of the geometry from the viewpoint of a single pixel. This specific pixel would be in the edge region as it only has partial view of the detector. \textbf  {b)} Relative contribution of each pixel for AXUV channel 10. This specific channel is also partially shadowed by structures within the vessel.\relax }}{4}{figure.caption.3}\protected@file@percent }
\abx@aux@cite{Bishop}
\abx@aux@segm{0}{0}{Bishop}
\abx@aux@cite{Bishop}
\abx@aux@segm{0}{0}{Bishop}
\abx@aux@cite{Rasmussen06}
\abx@aux@segm{0}{0}{Rasmussen06}
\abx@aux@cite{myGPTpaper}
\abx@aux@segm{0}{0}{myGPTpaper}
\newlabel{eq_d_prior}{{8}{5}{Recap of Gaussian Process Tomography (GPT)}{equation.3.8}{}}
\newlabel{eq_mean_post}{{9}{5}{Recap of Gaussian Process Tomography (GPT)}{equation.3.9}{}}
\newlabel{eq_mean_cov}{{10}{5}{Recap of Gaussian Process Tomography (GPT)}{equation.3.10}{}}
\@writefile{toc}{\defcounter {refsection}{0}\relax }\@writefile{toc}{\contentsline {section}{\numberline {4}AXUV Tomography for RADCAM}{5}{section.4}\protected@file@percent }
\@writefile{toc}{\defcounter {refsection}{0}\relax }\@writefile{toc}{\contentsline {subsection}{\numberline {4.1}Implementation of GPT}{5}{subsection.4.1}\protected@file@percent }
\@writefile{toc}{\defcounter {refsection}{0}\relax }\@writefile{toc}{\contentsline {subsubsection}{\numberline {4.1.1}Stationary Kernel Function}{5}{subsubsection.4.1.1}\protected@file@percent }
\newlabel{eq_stat_kernel}{{11}{5}{Stationary Kernel Function}{equation.4.11}{}}
\abx@aux@cite{myGPTpaper}
\abx@aux@segm{0}{0}{myGPTpaper}
\@writefile{lof}{\defcounter {refsection}{0}\relax }\@writefile{lof}{\contentsline {figure}{\numberline {4}{\ignorespaces Fit for same measurements with different parameters. While \(l\) mainly defines how fast the emissivity varies spatially, \(\sigma _E\) defines how strong the amplitude of the emissivity varies.\relax }}{6}{figure.caption.4}\protected@file@percent }
\newlabel{img_hyperparam_effect}{{4}{6}{Fit for same measurements with different parameters. While \(l\) mainly defines how fast the emissivity varies spatially, \(\sigma _E\) defines how strong the amplitude of the emissivity varies.\relax }{figure.caption.4}{}}
\@writefile{toc}{\defcounter {refsection}{0}\relax }\@writefile{toc}{\contentsline {subsubsection}{\numberline {4.1.2}Non-Stationary Kernel Function}{6}{subsubsection.4.1.2}\protected@file@percent }
\newlabel{eq_non_stat_kernel}{{12}{6}{Non-Stationary Kernel Function}{equation.4.12}{}}
\abx@aux@cite{Rasmussen06}
\abx@aux@segm{0}{0}{Rasmussen06}
\abx@aux@cite{bachelor}
\abx@aux@segm{0}{0}{bachelor}
\abx@aux@cite{bachelor}
\abx@aux@segm{0}{0}{bachelor}
\abx@aux@cite{Rasmussen06}
\abx@aux@segm{0}{0}{Rasmussen06}
\abx@aux@cite{PSNRjpg}
\abx@aux@segm{0}{0}{PSNRjpg}
\abx@aux@cite{SSIMpaper}
\abx@aux@segm{0}{0}{SSIMpaper}
\@writefile{lof}{\defcounter {refsection}{0}\relax }\@writefile{lof}{\contentsline {figure}{\numberline {5}{\ignorespaces The left plot shows the existing bolometer inversion for shot 70777 at \(t=0.6\) s. From this the AXUV-signal was computed via the forward model. This is used as both the input for the GPT with the stationary and non-stationary kernel. The results from this are shown in the middle. For the stationary kernel the parameters were obtained via optimization of the marginal log likelihood as described in \ref  {section_optimization}. For the non-stationary kernel the parameters were chosen by hand (\(l_0 = 5\) cm and \(\delta l = 15\) cm) to highlight the effect of the non-stationary kernel. There the fit around the X-point is more localized and has a higher amplitude which is closer to the bolometer inversion while having a slightly smoother distribution elsewhere. On the right the local length scale for this specific example is shown.\relax }}{7}{figure.caption.5}\protected@file@percent }
\newlabel{img_non_stationary}{{5}{7}{The left plot shows the existing bolometer inversion for shot 70777 at \(t=0.6\) s. From this the AXUV-signal was computed via the forward model. This is used as both the input for the GPT with the stationary and non-stationary kernel. The results from this are shown in the middle. For the stationary kernel the parameters were obtained via optimization of the marginal log likelihood as described in \ref {section_optimization}. For the non-stationary kernel the parameters were chosen by hand (\(l_0 = 5\) cm and \(\delta l = 15\) cm) to highlight the effect of the non-stationary kernel. There the fit around the X-point is more localized and has a higher amplitude which is closer to the bolometer inversion while having a slightly smoother distribution elsewhere. On the right the local length scale for this specific example is shown.\relax }{figure.caption.5}{}}
\@writefile{toc}{\defcounter {refsection}{0}\relax }\@writefile{toc}{\contentsline {subsubsection}{\numberline {4.1.3}Optimization of Hyperparameters}{7}{subsubsection.4.1.3}\protected@file@percent }
\newlabel{section_optimization}{{4.1.3}{7}{Optimization of Hyperparameters}{subsubsection.4.1.3}{}}
\newlabel{kap3_eq_log_like}{{14}{7}{Optimization of Hyperparameters}{equation.4.14}{}}
\abx@aux@cite{myGPTpaper}
\abx@aux@segm{0}{0}{myGPTpaper}
\@writefile{toc}{\defcounter {refsection}{0}\relax }\@writefile{toc}{\contentsline {subsection}{\numberline {4.2}Results and Comparison with Minimum Fisher Tomography}{8}{subsection.4.2}\protected@file@percent }
\abx@aux@cite{Liang2015}
\abx@aux@segm{0}{0}{Liang2015}
\@writefile{lot}{\defcounter {refsection}{0}\relax }\@writefile{lot}{\contentsline {table}{\numberline {1}{\ignorespaces Different metrics for all three fits in figure \ref  {img_benchmark} compared to the bolometer inversion. The arrows indicate whether smaller or bigger numbers are better.\relax }}{9}{table.caption.6}\protected@file@percent }
\newlabel{tab_benchmark}{{1}{9}{Different metrics for all three fits in figure \ref {img_benchmark} compared to the bolometer inversion. The arrows indicate whether smaller or bigger numbers are better.\relax }{table.caption.6}{}}
\@writefile{lof}{\defcounter {refsection}{0}\relax }\@writefile{lof}{\contentsline {figure}{\numberline {6}{\ignorespaces Comparion of fits obtained via minimum fisher information and Gaussian process tomography for shot 70777 at \(t=0.6\) s.\relax }}{9}{figure.caption.7}\protected@file@percent }
\newlabel{img_benchmark}{{6}{9}{Comparion of fits obtained via minimum fisher information and Gaussian process tomography for shot 70777 at \(t=0.6\) s.\relax }{figure.caption.7}{}}
\@writefile{toc}{\defcounter {refsection}{0}\relax }\@writefile{toc}{\contentsline {section}{\numberline {5}Analysis of Selected Fast Events}{9}{section.5}\protected@file@percent }
\@writefile{toc}{\defcounter {refsection}{0}\relax }\@writefile{toc}{\contentsline {subsection}{\numberline {5.1}Computation of calibration factors}{9}{subsection.5.1}\protected@file@percent }
\@writefile{lof}{\defcounter {refsection}{0}\relax }\@writefile{lof}{\contentsline {figure}{\numberline {7}{\ignorespaces The black data points with error bars show the AXUV-signal that was computed from the bolometer inversion with the forward model. When applying the forward model to the three different fits they all are within the error for most channels.\relax }}{10}{figure.caption.8}\protected@file@percent }
\newlabel{img_forward_comparison}{{7}{10}{The black data points with error bars show the AXUV-signal that was computed from the bolometer inversion with the forward model. When applying the forward model to the three different fits they all are within the error for most channels.\relax }{figure.caption.8}{}}
\@writefile{lof}{\defcounter {refsection}{0}\relax }\@writefile{lof}{\contentsline {figure}{\numberline {8}{\ignorespaces The left plot show the standard deviation of the fitted emissivity via GPT and the stationary kernel for shot 70777 at \(t=0.6\) s. The right plot shows the absolute error between the fit and the bolometer inversion divided by the standard deviation of the fit.\relax }}{10}{figure.caption.9}\protected@file@percent }
\newlabel{img_post_std}{{8}{10}{The left plot show the standard deviation of the fitted emissivity via GPT and the stationary kernel for shot 70777 at \(t=0.6\) s. The right plot shows the absolute error between the fit and the bolometer inversion divided by the standard deviation of the fit.\relax }{figure.caption.9}{}}
\@writefile{toc}{\defcounter {refsection}{0}\relax }\@writefile{toc}{\contentsline {subsection}{\numberline {5.2}Edge Localized Modes (ELMs)}{11}{subsection.5.2}\protected@file@percent }
\@writefile{toc}{\defcounter {refsection}{0}\relax }\@writefile{toc}{\contentsline {subsection}{\numberline {5.3}Disruptions}{11}{subsection.5.3}\protected@file@percent }
\abx@aux@cite{Wang18b}
\abx@aux@segm{0}{0}{Wang18b}
\abx@aux@cite{myGPTpaper}
\abx@aux@segm{0}{0}{myGPTpaper}
\abx@aux@cite{projectGIT}
\abx@aux@segm{0}{0}{projectGIT}
\@writefile{lof}{\defcounter {refsection}{0}\relax }\@writefile{lof}{\contentsline {figure}{\numberline {9}{\ignorespaces On the left fits with the non-stationary kernel for the beginning, the peak and the end of the ELM are shown. To obtain those first fits with the stationary kernel (\(\sigma _E = 1\) MW/m³, \(l=10\)cm) are computed. From this the local length scales can be calculated. For the non-stationary kernel the same \(\sigma _E\) together with \(l_0 = 7\) cm and \(\delta l = 7\) cm where used. Additionally the magnetic flux surfaces are plotted. It should be noted that those are only available in millisecond intervals. On the right the raw AXUV voltage is show for all 140 channels and the duration of the ELM. Especially between channel 120 and 125 it is visible that some channels are saturated. The red lines correspond to the time of the fits on the left.\relax }}{12}{figure.caption.10}\protected@file@percent }
\newlabel{img_elm}{{9}{12}{On the left fits with the non-stationary kernel for the beginning, the peak and the end of the ELM are shown. To obtain those first fits with the stationary kernel (\(\sigma _E = 1\) MW/m³, \(l=10\)cm) are computed. From this the local length scales can be calculated. For the non-stationary kernel the same \(\sigma _E\) together with \(l_0 = 7\) cm and \(\delta l = 7\) cm where used. Additionally the magnetic flux surfaces are plotted. It should be noted that those are only available in millisecond intervals. On the right the raw AXUV voltage is show for all 140 channels and the duration of the ELM. Especially between channel 120 and 125 it is visible that some channels are saturated. The red lines correspond to the time of the fits on the left.\relax }{figure.caption.10}{}}
\@writefile{toc}{\defcounter {refsection}{0}\relax }\@writefile{toc}{\contentsline {section}{\numberline {6}Conclusion}{12}{section.6}\protected@file@percent }
\@writefile{lof}{\defcounter {refsection}{0}\relax }\@writefile{lof}{\contentsline {figure}{\numberline {10}{\ignorespaces Inversions for five different time points during and shortly before the disruption are shown on the left. The inversions were calculated with the stationary kernel (\(\sigma _E = 5\) MW/m³, \(l=10\)cm). The magnetic flux surfaces were only available up to 1.499 seconds. On the right the AXUV voltage during the disruption is plotted with red lines indicating the time points of the inversions on the left. Especially between channel 80 and 120 a lot of channels show signs of saturation.\relax }}{13}{figure.caption.11}\protected@file@percent }
\newlabel{img_disruption}{{10}{13}{Inversions for five different time points during and shortly before the disruption are shown on the left. The inversions were calculated with the stationary kernel (\(\sigma _E = 5\) MW/m³, \(l=10\)cm). The magnetic flux surfaces were only available up to 1.499 seconds. On the right the AXUV voltage during the disruption is plotted with red lines indicating the time points of the inversions on the left. Especially between channel 80 and 120 a lot of channels show signs of saturation.\relax }{figure.caption.11}{}}
\abx@aux@read@bbl@mdfivesum{71BD7402A3F7E5F24BB7C2638F65549C}
\abx@aux@refcontextdefaultsdone
\abx@aux@defaultrefcontext{0}{svenson}{none/global//global/global}
\abx@aux@defaultrefcontext{0}{Li13}{none/global//global/global}
\abx@aux@defaultrefcontext{0}{Wang18a}{none/global//global/global}
\abx@aux@defaultrefcontext{0}{Wang18b}{none/global//global/global}
\abx@aux@defaultrefcontext{0}{Schilling_2021}{none/global//global/global}
\abx@aux@defaultrefcontext{0}{bachelor}{none/global//global/global}
\abx@aux@defaultrefcontext{0}{myGPTpaper}{none/global//global/global}
\abx@aux@defaultrefcontext{0}{Bishop}{none/global//global/global}
\abx@aux@defaultrefcontext{0}{Rasmussen06}{none/global//global/global}
\abx@aux@defaultrefcontext{0}{PSNRjpg}{none/global//global/global}
\abx@aux@defaultrefcontext{0}{SSIMpaper}{none/global//global/global}
\abx@aux@defaultrefcontext{0}{Liang2015}{none/global//global/global}
\abx@aux@defaultrefcontext{0}{projectGIT}{none/global//global/global}
\gdef \@abspage@last{14}
